…
Each particular pathway or functional gene set contain two column:
`ensembl_gene_id` `symbol`

``` r
CancerSEA$angiogenesis

# A tibble: 73 x 2
   ensembl_gene_id symbol
   <chr>           <chr> 
 1 ENSG00000139567 ACVRL1
 2 ENSG00000101384 JAG1  
 3 ENSG00000154188 ANGPT1
 4 ENSG00000091879 ANGPT2
 5 ENSG00000174059 CD34  
 6 ENSG00000070831 CDC42 
 7 ENSG00000112062 MAPK14
 8 ENSG00000025708 TYMP  
 9 ENSG00000078401 EDN1  
10 ENSG00000125266 EFNB2 
# ... with 63 more rows
```
